[
    {
        "Make_ID": 449,
        "Make_Name": "MERCEDES-BENZ",
        "Model_ID": 1703,
        "Model_Name": "Sprinter"
    },
    {
        "Make_ID": 449,
        "Make_Name": "MERCEDES-BENZ",
        "Model_ID": 2079,
        "Model_Name": "SL-Class"
    },
    {
        "Make_ID": 449,
        "Make_Name": "MERCEDES-BENZ",
        "Model_ID": 2081,
        "Model_Name": "E-Class"
    },
    {
        "Make_ID": 449,
        "Make_Name": "MERCEDES-BENZ",
        "Model_ID": 2082,
        "Model_Name": "CLS-Class"
    },
    {
        "Make_ID": 449,
        "Make_Name": "MERCEDES-BENZ",
        "Model_ID": 2083,
        "Model_Name": "CLA-Class"
    },
    {
        "Make_ID": 449,
        "Make_Name": "MERCEDES-BENZ",
        "Model_ID": 2084,
        "Model_Name": "GLA-Class"
    },
    {
        "Make_ID": 449,
        "Make_Name": "MERCEDES-BENZ",
        "Model_ID": 2085,
        "Model_Name": "C-Class"
    },
    {
        "Make_ID": 449,
        "Make_Name": "MERCEDES-BENZ",
        "Model_ID": 2086,
        "Model_Name": "S-Class"
    },
    {
        "Make_ID": 449,
        "Make_Name": "MERCEDES-BENZ",
        "Model_ID": 2087,
        "Model_Name": "SLS-Class"
    },
    {
        "Make_ID": 449,
        "Make_Name": "MERCEDES-BENZ",
        "Model_ID": 2113,
        "Model_Name": "B-Class"
    },
    {
        "Make_ID": 449,
        "Make_Name": "MERCEDES-BENZ",
        "Model_ID": 2131,
        "Model_Name": "G-Class"
    },
    {
        "Make_ID": 449,
        "Make_Name": "MERCEDES-BENZ",
        "Model_ID": 2132,
        "Model_Name": "GLK-Class"
    },
    {
        "Make_ID": 449,
        "Make_Name": "MERCEDES-BENZ",
        "Model_ID": 5881,
        "Model_Name": "AMG GT"
    },
    {
        "Make_ID": 449,
        "Make_Name": "MERCEDES-BENZ",
        "Model_ID": 5885,
        "Model_Name": "GLC-Class"
    },
    {
        "Make_ID": 449,
        "Make_Name": "MERCEDES-BENZ",
        "Model_ID": 5886,
        "Model_Name": "GLE-Class"
    },
    {
        "Make_ID": 449,
        "Make_Name": "MERCEDES-BENZ",
        "Model_ID": 11451,
        "Model_Name": "METRIS"
    },
    {
        "Make_ID": 449,
        "Make_Name": "MERCEDES-BENZ",
        "Model_ID": 11452,
        "Model_Name": "SLC-Class"
    },
    {
        "Make_ID": 449,
        "Make_Name": "MERCEDES-BENZ",
        "Model_ID": 14005,
        "Model_Name": "GLS-Class"
    },
    {
        "Make_ID": 449,
        "Make_Name": "MERCEDES-BENZ",
        "Model_ID": 14081,
        "Model_Name": "L1013"
    },
    {
        "Make_ID": 449,
        "Make_Name": "MERCEDES-BENZ",
        "Model_ID": 14082,
        "Model_Name": "L1113"
    },
    {
        "Make_ID": 449,
        "Make_Name": "MERCEDES-BENZ",
        "Model_ID": 14083,
        "Model_Name": "L1116"
    },
    {
        "Make_ID": 449,
        "Make_Name": "MERCEDES-BENZ",
        "Model_ID": 14084,
        "Model_Name": "L1316"
    },
    {
        "Make_ID": 449,
        "Make_Name": "MERCEDES-BENZ",
        "Model_ID": 14085,
        "Model_Name": "L1418"
    },
    {
        "Make_ID": 449,
        "Make_Name": "MERCEDES-BENZ",
        "Model_ID": 14087,
        "Model_Name": "L1117"
    },
    {
        "Make_ID": 449,
        "Make_Name": "MERCEDES-BENZ",
        "Model_ID": 14088,
        "Model_Name": "L1317"
    },
    {
        "Make_ID": 449,
        "Make_Name": "MERCEDES-BENZ",
        "Model_ID": 14089,
        "Model_Name": "L1419"
    },
    {
        "Make_ID": 449,
        "Make_Name": "MERCEDES-BENZ",
        "Model_ID": 14090,
        "Model_Name": "LP1419"
    },
    {
        "Make_ID": 449,
        "Make_Name": "MERCEDES-BENZ",
        "Model_ID": 14091,
        "Model_Name": "LPS1525"
    },
    {
        "Make_ID": 449,
        "Make_Name": "MERCEDES-BENZ",
        "Model_ID": 14092,
        "Model_Name": "LP1219"
    },
    {
        "Make_ID": 449,
        "Make_Name": "MERCEDES-BENZ",
        "Model_ID": 14093,
        "Model_Name": "L1319"
    },
    {
        "Make_ID": 449,
        "Make_Name": "MERCEDES-BENZ",
        "Model_ID": 24879,
        "Model_Name": "A-Class"
    },
    {
        "Make_ID": 449,
        "Make_Name": "MERCEDES-BENZ",
        "Model_ID": 26498,
        "Model_Name": "GLB-Class"
    },
    {
        "Make_ID": 449,
        "Make_Name": "MERCEDES-BENZ",
        "Model_ID": 26499,
        "Model_Name": "EQC-Class"
    }
]